{
  "commentators": [
    {
      "name": "Shrek",
      "profile": "commentators/shrek.jpg"
    },
    {
      "name": "Elon Musk",
      "profile": "commentators/elon.jpg"
    },
    {
      "name": "Sans",
      "profile": "commentators/sans.jpg"
    },
    {
      "name": "Creeper",
      "profile": "commentators/creeper.jpg"
    },
    {
      "name": "Pudge",
      "profile": "commentators/pudge.jpg"
    },
    {
      "name": "Escape Enter",
      "profile": "commentators/enter.jpg"
    },
    {
      "name": "Monokuma",
      "profile": "commentators/monokuma.jpg"
    },
    {
      "name": "Ryu",
      "profile": "commentators/ryu.jpg"
    },
    {
      "name": "Tails",
      "profile": "commentators/tails.jpg"
    },
    {
      "name": "Yoshi",
      "profile": "commentators/yoshi.jpg"
    },
    {
      "name": "Steven Steel",
      "profile": "commentators/steel.jpg"
    },
    {
      "name": "Bulka",
      "profile": "commentators/bulka.jpg"
    }
  ]
}
