{
  "brand": [
    "Porsche",
    "Mercedes",
    "BMW",
    "Audi",
    "Maserati",
    "Ferrari",
    "Bugatti",
    "Lamborghini"
  ],
  "color": [
    "red",
    "blue",
    "pink",
    "yellow",
    "purple",
    "black",
    "white",
    "green",
    "orange",
    "gray",
    "golden",
    "aqua",
    "silver",
    "navy"
  ],
  "description": [
    "old",
    "classic",
    "new",
    "trash",
    "futuristic",
    "monster",
    "shiny",
    "glowing",
    "flying",
    "survival"
  ],
  "history": [
    "mad pyrotechnician",
    "crazy octopus",
    "World War III veteran",
    "promising newbie",
    "lucky fisherman",
    "regular clerk",
    "streetracing fan",
    "ultimate racer",
    "serial killer",
    "blogger",
    "leader of yakuza clan",
    "legend of races",
    "ex-president of Zimbabwe"
  ]
}
